<?xml version="1.0" encoding="UTF-8" standalone="no"?>
<svg
   xmlns:dc="http://purl.org/dc/elements/1.1/"
   xmlns:cc="http://creativecommons.org/ns#"
   xmlns:rdf="http://www.w3.org/1999/02/22-rdf-syntax-ns#"
   xmlns:svg="http://www.w3.org/2000/svg"
   xmlns="http://www.w3.org/2000/svg"
   viewBox="0 0 472 319"
   height="340.26666"
   width="503.46667"
   version="1.1"
   id="logo">
  <metadata
     id="metadata3045">
    <rdf:RDF>
      <cc:Work
         rdf:about="">
        <dc:format>image/svg+xml</dc:format>
        <dc:type
           rdf:resource="http://purl.org/dc/dcmitype/StillImage" />
        <dc:title></dc:title>
      </cc:Work>
    </rdf:RDF>
  </metadata>
  <defs
     id="defs3043" />
  <rect
     y="66.956772"
     x="181.43124"
     height="2.907552"
     width="25.254168"
     id="l14"
     fill="#373a3c"
     stroke="#373a3c" />
  <rect
     y="76.759377"
     x="174.03777"
     height="3.6552083"
     width="38.711979"
     id="l13"
     fill="#373a3c"
     stroke="#373a3c" />
  <rect
     transform="scale(1,-1)"
     y="-159.10583"
     x="191.73201"
     height="78.830986"
     width="3.4070172"
     id="l12"
     fill="#373a3c"
     stroke="#373a3c" />
  <rect
     style="stroke-width:1.0046258"
     ry="0"
     y="117.16447"
     x="193.96417"
     height="2.2909138"
     width="140.65633"
     id="l15"
     fill="#373a3c"
     stroke="#373a3c" />
  <rect
     transform="scale(1,-1)"
     style="stroke-width:0.9938947"
     y="-117.16447"
     x="331.15564"
     height="80.89315"
     width="3.4648397"
     id="l21"
     fill="#373a3c"
     stroke="#373a3c" />
  <rect
     y="36.884377"
     x="281.28488"
     height="80.414581"
     width="3.3229043"
     id="l16"
     fill="#373a3c"
     stroke="#373a3c" />
  <rect
     y="118.92671"
     x="281.37143"
     height="142.15425"
     width="3.0545654"
     id="l17"
     fill="#373a3c"
     stroke="#373a3c" />
  <rect
     style="stroke-width:0.9798438"
     y="258.26138"
     x="281.37143"
     height="2.8195679"
     width="153.5858"
     id="l18"
     fill="#373a3c"
     stroke="#373a3c" />
  <rect
     transform="scale(1,-1)"
     style="stroke-width:1.0544796"
     y="-160.52078"
     x="331.15564"
     height="43.356323"
     width="3.4648335"
     id="l25"
     fill="#373a3c"
     stroke="#373a3c" />
  <rect
     transform="scale(-1,1)"
     style="stroke-width:1.30944657"
     y="157.36731"
     x="-435.50983"
     height="3.171093"
     width="104.37209"
     id="l24"
     fill="#373a3c"
     stroke="#373a3c" />
  <rect
     y="36.289906"
     x="432.63849"
     height="124.2485"
     width="2.8713379"
     id="l23"
     fill="#373a3c"
     stroke="#373a3c" />
  <rect
     style="stroke-width:1.16072607"
     y="36.271313"
     x="331.15564"
     height="2.9910061"
     width="104.27111"
     id="l22"
     fill="#373a3c"
     stroke="#373a3c" />
  <rect
     y="156.34323"
     x="90.217186"
     height="3.3229218"
     width="165.31509"
     id="l8"
     fill="#373a3c"
     stroke="#373a3c" />
  <rect
     y="156.34323"
     x="252.04323"
     height="105.06878"
     width="3.4890594"
     id="l11"
     fill="#373a3c"
     stroke="#373a3c" />
  <rect
     transform="scale(1,-1)"
     y="-260.9635"
     x="150.37804"
     height="103.85484"
     width="3.5244904"
     id="l9"
     fill="#373a3c"
     stroke="#373a3c" />
  <rect
     transform="scale(1,-1)"
     y="-199.40247"
     x="90.217186"
     height="43.059231"
     width="3.7690902"
     id="l7"
     fill="#373a3c"
     stroke="#373a3c" />
  <rect
     transform="scale(-1,1)"
     style="stroke-width:0.99488616"
     y="196.11295"
     x="-135.81018"
     height="3.2895203"
     width="45.593002"
     id="l6"
     fill="#373a3c"
     stroke="#373a3c" />
  <rect
     transform="scale(1,-1)"
     y="-260.72852"
     x="132.99059"
     height="64.615562"
     width="2.8195882"
     id="l5"
     fill="#373a3c"
     stroke="#373a3c" />
  <rect
     y="257.84457"
     x="30.307379"
     height="2.8839457"
     width="105.5028"
     id="l4"
     fill="#373a3c"
     stroke="#373a3c" />
  <rect
     style="stroke-width:1.00854242"
     y="36.323631"
     x="30.307379"
     height="224.40488"
     width="2.9768591"
     id="l3"
     fill="#373a3c"
     stroke="#373a3c" />
  <rect
     transform="scale(-1,1)"
     y="36.323631"
     x="-132.78238"
     height="3.0746872"
     width="102.48154"
     id="l2"
     fill="#373a3c"
     stroke="#373a3c" />
  <rect
     transform="scale(1,-1)"
     style="stroke-width:2.54346585"
     y="-97.622704"
     x="130.28442"
     height="61.299072"
     width="2.6854546"
     id="l1"
     fill="#373a3c"
     stroke="#373a3c" />
  <rect
     transform="scale(-1,1)"
     style="stroke-width:1.01679945"
     y="257.53348"
     x="-255.53229"
     height="3.878531"
     width="105.15425"
     id="l10"
     fill="#373a3c"
     stroke="#373a3c" />
  <rect
     style="stroke-width:0.54062748"
     transform="matrix(-0.7263686,-0.68730536,0.75530287,-0.6553759,0,0)"
     y="111.03612"
     x="-485.858"
     height="3.2563105"
     width="60.081383"
     id="l19"
     fill="#373a3c"
     stroke="#373a3c" />
  <rect
     style="stroke-width:0.53549027"
     transform="matrix(-0.69850739,0.71560284,-0.64063175,-0.76784827,0,0)"
     y="-497.78763"
     x="-171.79764"
     height="3.2257044"
     width="59.504265"
     id="l20"
     fill="#373a3c"
     stroke="#373a3c" />
  <rect
     y="160.08438"
     x="154.25607"
     height="12.89807"
     width="97.120377"
     id="f2"
     style="fill:#633b92;fill-opacity:1;stroke:#633b92;stroke-width:1.01518762;stroke-opacity:1" />
  <rect
     y="160.37509"
     x="237.45216"
     height="96.67984"
     width="14.101059"
     id="f3"
     style="fill:#633b92;fill-opacity:1;stroke:#633b92;stroke-opacity:1" />
  <rect
     transform="scale(-1,1)"
     y="244.44427"
     x="-251.54645"
     height="12.554064"
     width="97.283607"
     id="f4"
     style="fill:#633b92;fill-opacity:1;stroke:#633b92;stroke-width:0.99802643;stroke-opacity:1" />
  <rect
     transform="scale(1,-1)"
     y="-256.99835"
     x="154.26285"
     height="96.530945"
     width="13.246033"
     id="f1"
     style="fill:#633b92;fill-opacity:1;stroke:#633b92;stroke-width:1.00154507;stroke-opacity:1" />
  <rect
     y="103.61953"
     x="195.65213"
     height="13.008534"
     width="85.080566"
     id="o2"
     style="fill:#ec8b6d;fill-opacity:1;stroke:#ec8b6d;stroke-width:1.1043483;stroke-opacity:1" />
  <rect
     transform="scale(1,-1)"
     y="-116.72614"
     x="284.99423"
     height="79.35215"
     width="12.3459"
     id="o1"
     style="fill:#ec8b6d;fill-opacity:1;stroke:#ec8b6d;stroke-width:0.98586935;stroke-opacity:1" />
  <rect
     y="119.85478"
     x="284.91214"
     height="137.87376"
     width="12.445862"
     id="o3"
     style="fill:#ec8b6d;fill-opacity:1;stroke:#ec8b6d;stroke-opacity:1" />
  <rect
     ry="0"
     y="245.01959"
     x="284.91953"
     height="12.701582"
     width="133.78148"
     id="o4"
     style="fill:#ec8b6d;fill-opacity:1;stroke:#ec8b6d;stroke-width:1.03497195;stroke-opacity:1" />
  <path
     id="o5"
     d="m 433.65201,258.22424 -15.54659,-0.0478 0.004,-11.86762 1.11489,-1.70548 3.90632,3.70888 z"
     style="fill:#ec8b6d;fill-opacity:1;stroke:#ec8b6d;stroke-width:0.13236099;stroke-opacity:1" />
  <rect
     transform="scale(1,-1)"
     y="-157.31934"
     x="334.56671"
     height="118.06738"
     width="12.859791"
     id="g1"
     style="fill:#4bb199;fill-opacity:1;stroke-width:0.94326967" />
  <rect
     y="39.259113"
     x="419.94391"
     height="118.0902"
     width="12.69458"
     id="g3"
     style="fill:#4bb199;fill-opacity:1;stroke-width:0.93728149" />
  <rect
     y="39.251953"
     x="334.73193"
     height="12.768278"
     width="96.136391"
     id="g2"
     style="fill:#4bb199;fill-opacity:1;stroke-width:0.9375" />
  <rect
     transform="scale(-1,1)"
     y="144.55106"
     x="-432.63849"
     height="12.798264"
     width="98.07177"
     id="g4"
     style="fill:#4bb199;fill-opacity:1;stroke-width:0.94800091" />
  <rect
     transform="scale(1,-1)"
     y="-97.622711"
     x="119.11347"
     height="58.465397"
     width="11.170944"
     id="first_yellow"
     style="fill:#f6e76a;fill-opacity:1;stroke-width:0.94645733;image-rendering:auto" />
  <rect
     transform="scale(-1,1)"
     y="39.15731"
     x="-130.28442"
     height="13.744041"
     width="96.801811"
     id="second_yellow"
     style="fill:#f6e76a;fill-opacity:1;stroke-width:1.37446415" />
  <rect
     y="39.157318"
     x="33.268436"
     height="218.69647"
     width="13.148556"
     id="third_yellow"
     style="fill:#f6e76a;fill-opacity:1;stroke-width:2.53241658" />
  <rect
     y="244.04027"
     x="33.268436"
     height="13.813522"
     width="99.74662"
     id="five_yellow"
     style="fill:#f6e76a;fill-opacity:1;stroke-width:1.04482234" />
  <rect
     transform="scale(1,-1)"
     y="-257.85379"
     x="119.70625"
     height="58.496136"
     width="13.308807"
     id="six_yellow"
     style="fill:#f6e76a;fill-opacity:1;stroke-width:0.94531274" />
  <rect
     transform="scale(-1,1)"
     y="199.35767"
     x="-133.01506"
     height="13.412837"
     width="55.683327"
     id="seven_yellow"
     style="fill:#f6e76a;fill-opacity:1;stroke-width:1.85976994" />
  <rect
     transform="scale(1,-1)"
     y="-199.40247"
     x="77.351624"
     height="43.096901"
     width="12.865559"
     id="eight_yellow"
     style="fill:#f6e76a;fill-opacity:1;stroke-width:1.20284641" />
  <flowRoot
     style="fill:black;fill-opacity:1;stroke:none;font-family:sans-serif;font-style:normal;font-weight:normal;font-size:40px;line-height:25px;letter-spacing:0px;word-spacing:0px"
     id="flowRoot127"
     xml:space="preserve"><flowRegion
       id="flowRegion129"><rect
         y="278.11041"
         x="35.503185"
         height="41.240044"
         width="386.11795"
         id="rect131" /></flowRegion><flowPara
       id="flowPara133" /></flowRoot>  <text
     id="text145"
     y="293.84488"
     x="123.08036"
     style="font-style:normal;font-weight:normal;font-size:37.5px;line-height:23.4375px;font-family:sans-serif;letter-spacing:0px;word-spacing:0px;fill:#373a3c;fill-opacity:1;stroke:none;stroke-width:0.9375"
     xml:space="preserve"><tspan
       style="stroke-width:0.9375"
       y="293.84488"
       x="123.08036"
       id="tspan143" /></text>
</svg>
